module gitlab.com/DirkFaust/staticsrv

go 1.22.3

require github.com/labstack/echo v3.3.10+incompatible

require (
	github.com/dgrijalva/jwt-go v3.2.0+incompatible // indirect
	github.com/labstack/gommon v0.4.2 // indirect
	github.com/mattn/go-colorable v0.1.13 // indirect
	github.com/mattn/go-isatty v0.0.20 // indirect
	github.com/stretchr/testify v1.9.0 // indirect
	github.com/valyala/bytebufferpool v1.0.0 // indirect
	github.com/valyala/fasttemplate v1.2.2 // indirect
	golang.org/x/crypto v0.24.0 // indirect
	golang.org/x/net v0.21.0 // indirect
	golang.org/x/sys v0.21.0 // indirect
	golang.org/x/text v0.16.0 // indirect
)
